<?xml version="1.0" encoding="UTF-8" ?>
<!DOCTYPE svg PUBLIC "-//W3C//DTD SVG 1.1//EN" "http://www.w3.org/Graphics/SVG/1.1/DTD/svg11.dtd">
<svg width="750pt" height="750pt" viewBox="0 0 750 750" version="1.1" xmlns="http://www.w3.org/2000/svg">
<g id="#404040ff">
<path fill="#404040" opacity="1.00" d=" M 372.41 1.49 C 377.14 0.54 381.96 1.96 386.28 3.83 C 395.03 7.88 400.42 17.53 400.28 27.05 C 400.38 56.35 400.30 85.65 400.32 114.95 C 400.38 120.11 399.57 125.41 396.95 129.93 C 392.85 137.44 384.56 142.44 376.00 142.49 C 368.83 142.67 361.77 139.32 357.09 133.94 C 352.89 129.02 351.06 122.46 351.01 116.07 C 351.00 86.69 351.01 57.32 351.01 27.95 C 350.99 21.06 353.16 13.97 358.00 8.93 C 361.77 4.87 367.02 2.49 372.41 1.49 Z" />
<path fill="#404040" opacity="1.00" d=" M 129.36 101.57 C 135.80 100.70 142.68 102.15 147.91 106.11 C 151.31 108.66 154.23 111.77 157.23 114.76 C 174.06 131.58 190.88 148.41 207.71 165.24 C 211.02 168.61 214.53 171.82 217.50 175.51 C 223.15 182.51 224.58 192.71 220.80 200.91 C 217.59 208.53 210.14 214.05 201.95 215.09 C 193.81 216.55 185.66 212.83 179.92 207.19 C 158.90 186.16 137.87 165.15 116.85 144.12 C 112.17 139.30 108.96 132.85 108.84 126.05 C 108.75 119.42 111.61 112.91 116.06 108.07 C 119.86 104.89 124.44 102.42 129.36 101.57 Z" />
<path fill="#404040" opacity="1.00" d=" M 612.37 102.55 C 623.51 99.17 636.38 105.00 641.16 115.61 C 644.58 122.93 644.13 131.99 639.83 138.86 C 637.88 142.13 635.01 144.68 632.35 147.35 C 612.02 167.68 591.68 188.01 571.36 208.35 C 566.83 212.87 560.56 215.72 554.10 215.64 C 544.84 216.03 535.85 210.34 531.84 202.06 C 527.10 192.59 529.51 180.43 537.19 173.23 C 558.55 151.90 579.89 130.54 601.23 109.19 C 604.36 106.15 608.16 103.77 612.37 102.55 Z" />
<path fill="#404040" opacity="1.00" d=" M 337.00 172.39 C 355.09 168.92 373.63 168.20 391.97 169.52 C 438.16 173.21 482.75 193.70 515.69 226.27 C 548.67 258.36 569.83 302.20 574.70 347.93 C 576.00 358.90 575.38 369.96 575.47 380.97 C 572.94 430.30 551.08 478.31 515.70 512.76 C 490.64 535.34 473.45 566.57 468.08 599.90 C 466.71 608.16 466.07 616.54 465.94 624.92 C 405.42 624.98 344.89 624.91 284.37 624.95 C 284.18 591.02 272.60 557.16 251.29 530.68 C 245.94 523.77 239.70 517.63 233.34 511.67 C 203.02 481.52 182.65 441.43 176.59 399.07 C 171.59 365.84 175.10 331.30 186.86 299.79 C 199.27 266.00 221.09 235.76 249.13 213.21 C 274.50 192.69 304.98 178.59 337.00 172.39 M 270.73 260.71 C 246.48 283.71 230.56 315.08 225.76 348.11 C 218.92 393.71 234.73 442.04 267.18 474.80 C 269.71 477.27 272.26 479.71 274.78 482.19 C 300.85 507.92 319.54 541.00 328.28 576.56 C 359.49 576.42 390.70 576.53 421.91 576.51 C 429.43 546.07 444.15 517.43 464.66 493.71 C 470.75 486.48 477.67 480.03 484.40 473.40 C 503.90 452.92 517.52 426.84 522.94 399.07 C 530.04 364.77 524.30 328.09 507.52 297.39 C 487.04 259.30 449.33 231.07 407.01 222.14 C 358.94 211.17 306.02 226.35 270.73 260.71 Z" />
<path fill="#404040" opacity="1.00" d=" M 26.42 345.64 C 28.58 345.16 30.78 344.99 32.98 344.99 C 62.99 345.02 93.00 344.99 123.01 345.00 C 129.55 345.03 136.14 347.42 140.79 352.10 C 147.55 358.48 149.86 368.94 146.71 377.65 C 143.56 387.12 134.00 393.88 124.05 393.98 C 94.71 394.03 65.37 393.98 36.03 394.01 C 31.81 394.08 27.47 394.07 23.46 392.58 C 14.03 389.43 7.11 379.99 7.03 370.03 C 6.59 358.65 15.24 347.78 26.42 345.64 Z" />
<path fill="#404040" opacity="1.00" d=" M 624.24 345.21 C 655.14 344.72 686.08 345.16 717.00 344.98 C 724.13 344.79 731.52 347.25 736.42 352.60 C 742.44 358.52 744.74 367.73 742.51 375.84 C 739.84 386.17 729.77 393.98 719.09 393.99 C 688.38 394.02 657.67 393.99 626.96 394.00 C 620.18 394.01 613.44 391.22 608.86 386.19 C 602.94 380.25 600.84 371.08 603.05 363.07 C 605.57 353.53 614.40 346.08 624.24 345.21 Z" />
<path fill="#404040" opacity="1.00" d=" M 191.27 523.49 C 202.52 519.88 215.59 525.98 220.35 536.71 C 224.03 544.42 223.07 554.12 218.10 561.05 C 216.62 563.20 214.72 565.00 212.88 566.83 C 191.85 587.82 170.88 608.87 149.83 629.84 C 140.88 638.66 125.16 638.73 116.17 629.95 C 108.84 623.17 106.46 611.67 110.51 602.55 C 112.50 597.59 116.45 593.88 120.20 590.24 C 140.20 570.23 160.22 550.23 180.21 530.21 C 183.32 527.17 187.07 524.70 191.27 523.49 Z" />
<path fill="#404040" opacity="1.00" d=" M 547.25 522.89 C 555.16 521.36 563.56 524.10 569.28 529.73 C 590.81 551.22 612.30 572.75 633.83 594.25 C 643.81 603.45 643.98 620.82 633.83 629.95 C 626.95 636.54 616.07 638.41 607.37 634.55 C 603.81 633.08 600.76 630.61 598.12 627.84 C 576.99 606.66 555.82 585.53 534.67 564.37 C 529.62 559.37 526.93 552.17 527.49 545.08 C 528.05 534.33 536.74 524.86 547.25 522.89 Z" />
<path fill="#404040" opacity="1.00" d=" M 299.47 636.67 C 315.28 636.06 331.13 636.56 346.95 636.40 C 380.34 636.46 413.73 636.32 447.12 636.44 C 456.71 636.28 466.18 642.01 470.09 650.84 C 474.31 659.99 472.12 671.78 464.50 678.48 C 459.59 683.20 452.72 685.44 445.98 685.30 C 398.65 685.30 351.31 685.31 303.98 685.29 C 297.74 685.39 291.42 683.44 286.65 679.36 C 278.67 672.95 275.78 661.14 279.77 651.74 C 282.91 643.55 290.85 637.76 299.47 636.67 Z" />
<path fill="#404040" opacity="1.00" d=" M 296.40 697.70 C 300.53 696.65 304.84 696.83 309.06 696.79 C 354.39 696.81 399.71 696.77 445.03 696.80 C 451.56 696.66 458.43 698.20 463.44 702.62 C 469.99 707.91 473.33 716.76 471.91 725.06 C 470.59 734.55 462.92 742.60 453.68 744.84 C 449.85 745.84 445.86 745.58 441.95 745.61 C 395.60 745.60 349.26 745.62 302.92 745.60 C 296.22 745.69 289.54 742.98 284.88 738.16 C 278.47 731.80 276.29 721.66 279.37 713.20 C 281.97 705.61 288.60 699.58 296.40 697.70 Z" />
</g>
</svg>
