<?xml version="1.0" encoding="UTF-8" standalone="no"?>
<svg
   xmlns:dc="http://purl.org/dc/elements/1.1/"
   xmlns:cc="http://creativecommons.org/ns#"
   xmlns:rdf="http://www.w3.org/1999/02/22-rdf-syntax-ns#"
   xmlns:svg="http://www.w3.org/2000/svg"
   xmlns="http://www.w3.org/2000/svg"
   xmlns:sodipodi="http://sodipodi.sourceforge.net/DTD/sodipodi-0.dtd"
   xmlns:inkscape="http://www.inkscape.org/namespaces/inkscape"
   height="24"
   width="24"
   version="1.1"
   id="svg16"
   sodipodi:docname="record_83P.svg"
   inkscape:version="0.92.3 (2405546, 2018-03-11)">
  <metadata
     id="metadata22">
    <rdf:RDF>
      <cc:Work
         rdf:about="">
        <dc:format>image/svg+xml</dc:format>
        <dc:type
           rdf:resource="http://purl.org/dc/dcmitype/StillImage" />
        <dc:title></dc:title>
      </cc:Work>
    </rdf:RDF>
  </metadata>
  <defs
     id="defs20" />
  <sodipodi:namedview
     pagecolor="#ffffff"
     bordercolor="#666666"
     borderopacity="1"
     objecttolerance="10"
     gridtolerance="10"
     guidetolerance="10"
     inkscape:pageopacity="0"
     inkscape:pageshadow="2"
     inkscape:window-width="1247"
     inkscape:window-height="1023"
     id="namedview18"
     showgrid="false"
     inkscape:zoom="27.812867"
     inkscape:cx="11.556503"
     inkscape:cy="12.136785"
     inkscape:window-x="350"
     inkscape:window-y="0"
     inkscape:window-maximized="0"
     inkscape:current-layer="svg16" />
  <ellipse
     id="circle2"
     style="fill:#fab4b4;fill-opacity:1;stroke:#d46767;stroke-width:1.3253628;stroke-linejoin:round;stroke-miterlimit:0.40000001;stroke-opacity:1"
     cy="12.017448"
     cx="12.00564"
     rx="11.310616"
     ry="11.220731" />
  <text
     xml:space="preserve"
     style="font-style:normal;font-weight:normal;font-size:8.26781464px;line-height:125%;font-family:sans-serif;letter-spacing:0px;word-spacing:0px;fill:#000000;fill-opacity:1;stroke:none;stroke-width:0.20669539px;stroke-linecap:butt;stroke-linejoin:miter;stroke-opacity:1"
     x="3.9700861"
     y="15.398204"
     id="text4540"><tspan
       sodipodi:role="line"
       x="3.9700861"
       y="15.398204"
       style="font-style:normal;font-variant:normal;font-weight:bold;font-stretch:normal;font-family:sans-serif;-inkscape-font-specification:'sans-serif Bold';stroke-width:0.20669539px"
       id="tspan814">83P</tspan></text>
</svg>
